\relax 
\providecommand\hyper@newdestlabel[2]{}
\providecommand\HyperFirstAtBeginDocument{\AtBeginDocument}
\HyperFirstAtBeginDocument{\ifx\hyper@anchor\@undefined
\global\let\oldcontentsline\contentsline
\gdef\contentsline#1#2#3#4{\oldcontentsline{#1}{#2}{#3}}
\global\let\oldnewlabel\newlabel
\gdef\newlabel#1#2{\newlabelxx{#1}#2}
\gdef\newlabelxx#1#2#3#4#5#6{\oldnewlabel{#1}{{#2}{#3}}}
\AtEndDocument{\ifx\hyper@anchor\@undefined
\let\contentsline\oldcontentsline
\let\newlabel\oldnewlabel
\fi}
\fi}
\global\let\hyper@last\relax 
\gdef\HyperFirstAtBeginDocument#1{#1}
\providecommand\HyField@AuxAddToFields[1]{}
\providecommand\HyField@AuxAddToCoFields[2]{}
\@writefile{toc}{\contentsline {section}{\numberline {1}Introduction}{1}{section.1}}
\@writefile{toc}{\contentsline {section}{\numberline {2}Viola\discretionary {-}{}{}Jones Technical Discussion}{1}{section.2}}
\@writefile{toc}{\contentsline {subsection}{\numberline {2.1}Haar Features}{1}{subsection.2.1}}
\@writefile{lof}{\contentsline {figure}{\numberline {1}{\ignorespaces Examples of Haar Features\relax }}{2}{figure.caption.1}}
\@writefile{lof}{\contentsline {figure}{\numberline {2}{\ignorespaces Face Representation Using Different Haar Features\relax }}{2}{figure.caption.2}}
\@writefile{lof}{\contentsline {figure}{\numberline {3}{\ignorespaces Calculation of Haar Features\relax }}{3}{figure.caption.3}}
\@writefile{toc}{\contentsline {subsection}{\numberline {2.2}Integral Images}{3}{subsection.2.2}}
\@writefile{lof}{\contentsline {figure}{\numberline {4}{\ignorespaces Calculation of an Integral Image\relax }}{3}{figure.caption.4}}
\@writefile{toc}{\contentsline {subsection}{\numberline {2.3}Training Function and Boosting}{4}{subsection.2.3}}
\@writefile{toc}{\contentsline {subsection}{\numberline {2.4}Haar Cascades}{5}{subsection.2.4}}
\@writefile{lof}{\contentsline {figure}{\numberline {6}{\ignorespaces Cascade Classifier Work Flow\relax }}{5}{figure.caption.6}}
\@writefile{toc}{\contentsline {section}{\numberline {3}Artifact 1}{5}{section.3}}
\@writefile{lof}{\contentsline {figure}{\numberline {9}{\ignorespaces Face Detection Using Locally Trained Classifier\relax }}{7}{figure.caption.9}}
\@writefile{toc}{\contentsline {section}{\numberline {4}Artifact 2}{8}{section.4}}
\@writefile{lof}{\contentsline {figure}{\numberline {10}{\ignorespaces Setting Up\relax }}{8}{figure.caption.10}}
\@writefile{lof}{\contentsline {figure}{\numberline {11}{\ignorespaces Face Detection Set Up\relax }}{8}{figure.caption.11}}
\@writefile{lof}{\contentsline {figure}{\numberline {12}{\ignorespaces Eye Detection Set Up And Marking Of Detected Objects\relax }}{9}{figure.caption.12}}
\@writefile{lof}{\contentsline {figure}{\numberline {13}{\ignorespaces Producing Artifact\relax }}{9}{figure.caption.13}}
\@writefile{lof}{\contentsline {figure}{\numberline {14}{\ignorespaces Face And Eye Detection Using Online Classifiers\relax }}{9}{figure.caption.14}}
\@writefile{toc}{\contentsline {section}{\numberline {5}Experiments and Their Evaluations}{10}{section.5}}
\@writefile{toc}{\contentsline {subsection}{\numberline {5.1}Evaluation of Artifact 1}{10}{subsection.5.1}}
\@writefile{toc}{\contentsline {subsection}{\numberline {5.2}Evaluation of Artifact 2}{10}{subsection.5.2}}
\@writefile{toc}{\contentsline {subsection}{\numberline {5.3}Overall Evaluation}{10}{subsection.5.3}}
\@writefile{toc}{\contentsline {section}{\numberline {6}Alternative Algorithm}{11}{section.6}}
\@writefile{toc}{\contentsline {subsection}{\numberline {6.1}Introducing KLT}{11}{subsection.6.1}}
\@writefile{toc}{\contentsline {subsection}{\numberline {6.2}Comparing KLT and Viola Jones}{11}{subsection.6.2}}
\@writefile{toc}{\contentsline {section}{\numberline {7}Overall Conclusions}{12}{section.7}}
\@writefile{lof}{\contentsline {figure}{\numberline {16}{\ignorespaces Statement Of Completion Form\relax }}{12}{figure.caption.16}}
